{
    "dependencies": {
        "node": [
            {
                "name": "wysibb",
                "version": "1.0.0"
            }
        ],
        "composer": [
            {
                "name": "jbbcode\/jbbcode",
                "version": "^1.3"
            }
        ]
    },
    "map": {
        "assets": {
            "vendor": {
                "images": {
                    "smilies": [
                        "alien.png",
                        "angel.png",
                        "angry.png",
                        "blink.png",
                        "blush.png",
                        "cheerful.png",
                        "cool.png",
                        "credits.txt",
                        "cwy.png",
                        "devil.png",
                        "dizzy.png",
                        "ermm.png",
                        "face.png",
                        "getlost.png",
                        "grin.png",
                        "happy.png",
                        "heart.png",
                        "kissing.png",
                        "laughing.png",
                        "ninja.png",
                        "pinch.png",
                        "pouty.png",
                        "sad.png",
                        "shocked.png",
                        "sick.png",
                        "sideways.png",
                        "silly.png",
                        "sleeping.png",
                        "smile.png",
                        "tongue.png",
                        "unsure.png",
                        "w00t.png",
                        "wassat.png",
                        "whistling.png",
                        "wink.png",
                        "wub.png"
                    ]
                }
            }
        },
        "assets_src": {
            "js": {
                "src": [
                    "default_conf_wysibb.js"
                ]
            }
        }
    },
    "version": "1.0.0"
}